[
  "\"\"",
  "#",
  "$",
  "''",
  ",",
  "-LRB-",
  "-RRB-",
  ".",
  ":",
  "ADD",
  "AFX",
  "BES",
  "CC",
  "CD",
  "DT",
  "EX",
  "FW",
  "GW",
  "HVS",
  "HYPH",
  "IN",
  "JJ",
  "JJR",
  "JJS",
  "LS",
  "MD",
  "NFP",
  "NIL",
  "NN",
  "NNP",
  "NNPS",
  "NNS",
  "PDT",
  "PRP",
  "PRP$",
  "RB",
  "RBR",
  "RBS",
  "RP",
  "SP",
  "TO",
  "UH",
  "VB",
  "VBD",
  "VBG",
  "VBN",
  "VBP",
  "VBZ",
  "WDT",
  "WP",
  "WP$",
  "WRB",
  "XX",
  "_SP",
  "``",
  "that",
  "if",
  "as",
  "because",
  "while",
  "since",
  "like",
  "so",
  "than",
  "whether",
  "although",
  "though",
  "unless",
  "once",
  "cause",
  "upon",
  "till",
  "whereas",
  "whilst",
  "except",
  "despite",
  "wether",
  "but",
  "becuse",
  "whie",
  "it",
  "w/out",
  "albeit",
  "save",
  "besides",
  "becouse",
  "coz",
  "til",
  "ask",
  "i'd",
  "out",
  "near",
  "seince",
  "tho",
  "sice",
  "will",
  "That",
  "If",
  "As",
  "Because",
  "While",
  "Since",
  "Like",
  "So",
  "Than",
  "Whether",
  "Although",
  "Though",
  "Unless",
  "Once",
  "Cause",
  "Upon",
  "Till",
  "Whereas",
  "Whilst",
  "Except",
  "Despite",
  "Wether",
  "But",
  "Becuse",
  "Whie",
  "It",
  "W/Out",
  "Albeit",
  "Save",
  "Besides",
  "Becouse",
  "Coz",
  "Til",
  "Ask",
  "I'D",
  "Out",
  "Near",
  "Seince",
  "Tho",
  "Sice",
  "Will",
  "something",
  "anyone",
  "anything",
  "nothing",
  "someone",
  "everything",
  "everyone",
  "everybody",
  "nobody",
  "somebody",
  "anybody",
  "any1",
  "Something",
  "Anyone",
  "Anything",
  "Nothing",
  "Someone",
  "Everything",
  "Everyone",
  "Everybody",
  "Nobody",
  "Somebody",
  "Anybody",
  "Any1",
  "-PRON-",
  "I",
  "me",
  "you",
  "he",
  "him",
  "she",
  "her",
  "we",
  "us",
  "they",
  "them",
  "mine",
  "his",
  "hers",
  "its",
  "ours",
  "yours",
  "theirs",
  "myself",
  "yourself",
  "himself",
  "herself",
  "itself",
  "themself",
  "ourselves",
  "yourselves",
  "themselves",
  "Me",
  "You",
  "He",
  "Him",
  "She",
  "Her",
  "We",
  "Us",
  "They",
  "Them",
  "Mine",
  "His",
  "Hers",
  "Its",
  "Ours",
  "Yours",
  "Theirs",
  "Myself",
  "Yourself",
  "Himself",
  "Herself",
  "Itself",
  "Themself",
  "Ourselves",
  "Yourselves",
  "Themselves",
  "my",
  "your",
  "our",
  "their",
  "My",
  "Your",
  "Our",
  "Their",
  "not",
  "n't",
  "nt",
  "n\u2019t",
  "Not",
  "N'T",
  "Nt",
  "N\u2019T",
  "be",
  "have",
  "do",
  "get",
  "of",
  "am",
  "are",
  "'ve",
  "Be",
  "Have",
  "Do",
  "Get",
  "Of",
  "Am",
  "Are",
  "'Ve",
  "been",
  "Been",
  "being",
  "Being",
  "is",
  "'re",
  "'s",
  "has",
  "does",
  "Is",
  "'Re",
  "'S",
  "Has",
  "Does",
  "'m",
  "'d",
  "'M",
  "'D",
  "was",
  "were",
  "did",
  "had",
  "Was",
  "Were",
  "Did",
  "Had",
  "\t",
  "en",
  "\n",
  " ",
  "\")",
  "\"",
  "'",
  "'Cause",
  "'cause",
  "use",
  "'Xxxxx",
  "'Cos",
  "'cos",
  "Cos",
  "'Xxx",
  "'Coz",
  "'coz",
  "'Cuz",
  "'cuz",
  "Cuz",
  "'X",
  "'bout",
  "about",
  "'xxxx",
  "cos",
  "'xxx",
  "cuz",
  "'x",
  "'em",
  "'xx",
  "'ll",
  "'nuff",
  "enough",
  "uff",
  "(*_*)",
  "(",
  "_*)",
  "(-8",
  "(-d",
  "(-:",
  "(-;",
  "(-_-)",
  "_-)",
  "(._.)",
  "_.)",
  "(:",
  "(;",
  "(=",
  "(>_<)",
  "_<)",
  "(^_^)",
  "_^)",
  "(o:",
  "(x:",
  "(\u00ac_\u00ac)",
  "_\u00ac)",
  "(\u0ca0_\u0ca0)",
  "_\u0ca0)",
  "(x_x)",
  "(\u256f\u00b0\u25a1\u00b0\uff09\u256f\ufe35\u253b\u2501\u253b",
  "\u253b\u2501\u253b",
  ")-:",
  ")",
  "):",
  "-_-",
  "-",
  "-__-",
  "__-",
  "._.",
  "0.0",
  "0",
  "d.d",
  "0.o",
  "d.x",
  "0_0",
  "d_d",
  "0_o",
  "d_x",
  "10",
  "1",
  "dd",
  "a.m.",
  "a",
  ".m.",
  "x.x.",
  "xx",
  "p.m.",
  "p",
  "pm",
  "11",
  "12",
  "d",
  "2",
  "3",
  "4",
  "5",
  "6",
  "7",
  "8)",
  "8",
  "d)",
  "8-)",
  "d-)",
  "8-D",
  "8-d",
  "d-X",
  "8D",
  "8d",
  "dX",
  "9",
  ":'(",
  ":')",
  ":'-(",
  "'-(",
  ":'-)",
  "'-)",
  ":(",
  ":((",
  ":(((",
  "(((",
  ":()",
  ":)",
  ":))",
  ":)))",
  ")))",
  ":*",
  ":-(",
  ":-((",
  "-((",
  ":-(((",
  ":-)",
  ":-))",
  "-))",
  ":-)))",
  ":-*",
  ":-/",
  ":-0",
  ":-d",
  ":-3",
  ":->",
  ":-D",
  ":-X",
  ":-O",
  ":-o",
  ":-P",
  ":-p",
  ":-x",
  ":-]",
  ":-|",
  ":-}",
  ":/",
  ":0",
  ":d",
  ":1",
  ":3",
  ":>",
  ":D",
  ":X",
  ":O",
  ":o",
  ":P",
  ":p",
  ":x",
  ":]",
  ":o)",
  ":x)",
  ":|",
  ":}",
  ":\u2019(",
  ":\u2019)",
  ":\u2019-(",
  "\u2019-(",
  ":\u2019-)",
  "\u2019-)",
  ";)",
  ";",
  ";-)",
  ";-D",
  ";-d",
  ";-X",
  ";D",
  ";d",
  ";X",
  ";_;",
  "<.<",
  "<",
  "</3",
  "</d",
  "<3",
  "<d",
  "<33",
  "<dd",
  "<333",
  "333",
  "<ddd",
  "<space>",
  "ce>",
  "<xxxx>",
  "=(",
  "=",
  "=)",
  "=/",
  "=3",
  "=d",
  "=D",
  "=X",
  "=|",
  ">.<",
  ">",
  ">.>",
  ">:(",
  ">:o",
  ">:x",
  "><(((*>",
  "(*>",
  "@_@",
  "@",
  "Adm.",
  "adm.",
  "A",
  "dm.",
  "Xxx.",
  "Ai",
  "ai",
  "Xx",
  "n",
  "x'x",
  "x\u2019x",
  "Ak.",
  "Alaska",
  "ak.",
  "Xx.",
  "Ala.",
  "Alabama",
  "ala.",
  "la.",
  "Apr.",
  "April",
  "apr.",
  "pr.",
  "Xxx",
  "Ariz.",
  "Arizona",
  "ariz.",
  "iz.",
  "Xxxx.",
  "Ark.",
  "Arkansas",
  "ark.",
  "rk.",
  "Aug.",
  "August",
  "aug.",
  "ug.",
  "Bros.",
  "bros.",
  "B",
  "os.",
  "C++",
  "c++",
  "C",
  "X++",
  "Calif.",
  "California",
  "calif.",
  "if.",
  "Xxxxx.",
  "Ca",
  "can",
  "ca",
  "Can",
  "xxx",
  "ve",
  "v",
  "\u2019ve",
  "\u2019",
  "\u2019xx",
  "Co.",
  "co.",
  "Colo.",
  "Colorado",
  "colo.",
  "lo.",
  "Conn.",
  "Connecticut",
  "conn.",
  "nn.",
  "Corp.",
  "corp.",
  "rp.",
  "Could",
  "could",
  "uld",
  "Xxxxx",
  "D.C.",
  "d.c.",
  "D",
  ".C.",
  "X.X.",
  "Dare",
  "dare",
  "Xxxx",
  "Dec.",
  "December",
  "dec.",
  "ec.",
  "Del.",
  "Delaware",
  "del.",
  "el.",
  "oes",
  "Doin",
  "doing",
  "doin",
  "oin",
  "Doin'",
  "doin'",
  "in'",
  "Xxxx'",
  "Doin\u2019",
  "doin\u2019",
  "in\u2019",
  "Xxxx\u2019",
  "Dr.",
  "dr.",
  "E.G.",
  "e.g.",
  "E",
  ".G.",
  "E.g.",
  ".g.",
  "X.x.",
  "Feb.",
  "February",
  "feb.",
  "F",
  "eb.",
  "Fla.",
  "Florida",
  "fla.",
  "Ga.",
  "Georgia",
  "ga.",
  "G",
  "Gen.",
  "gen.",
  "en.",
  "Goin",
  "go",
  "going",
  "goin",
  "Goin'",
  "goin'",
  "Goin\u2019",
  "goin\u2019",
  "Gon",
  "gon",
  "na",
  "to",
  "Got",
  "got",
  "ta",
  "t",
  "Gov.",
  "gov.",
  "ov.",
  "H",
  "ave",
  "Havin",
  "having",
  "havin",
  "vin",
  "Havin'",
  "havin'",
  "Xxxxx'",
  "Havin\u2019",
  "havin\u2019",
  "Xxxxx\u2019",
  "would",
  "x",
  "ll",
  "l",
  "s",
  "\u2019d",
  "\u2019x",
  "\u2019ll",
  "\u2019s",
  "How",
  "how",
  "'y",
  "re",
  "r",
  "\u2019y",
  "\u2019re",
  "i",
  "going to",
  "gonna",
  "I.E.",
  "i.e.",
  ".E.",
  "I.e.",
  ".e.",
  "Ia.",
  "Iowa",
  "ia.",
  "Id.",
  "Idaho",
  "id.",
  "Ill.",
  "Illinois",
  "ill.",
  "ll.",
  "m",
  "Inc.",
  "inc.",
  "nc.",
  "Ind.",
  "Indiana",
  "ind.",
  "nd.",
  "\u2019m",
  "Jan.",
  "January",
  "jan.",
  "J",
  "an.",
  "Jr.",
  "jr.",
  "Jul.",
  "July",
  "jul.",
  "ul.",
  "Jun.",
  "June",
  "jun.",
  "un.",
  "Kan.",
  "Kansas",
  "kan.",
  "K",
  "Kans.",
  "kans.",
  "ns.",
  "Ky.",
  "Kentucky",
  "ky.",
  "La.",
  "Louisiana",
  "L",
  "Let",
  "let",
  "Lovin",
  "love",
  "loving",
  "lovin",
  "Lovin'",
  "lovin'",
  "Lovin\u2019",
  "lovin\u2019",
  "Ltd.",
  "ltd.",
  "td.",
  "Ma'am",
  "madam",
  "ma'am",
  "M",
  "'am",
  "Xx'xx",
  "Mar.",
  "March",
  "mar.",
  "ar.",
  "Mass.",
  "Massachusetts",
  "mass.",
  "ss.",
  "May.",
  "May",
  "may.",
  "ay.",
  "may",
  "Ma\u2019am",
  "ma\u2019am",
  "\u2019am",
  "Xx\u2019xx",
  "Md.",
  "md.",
  "Messrs.",
  "messrs.",
  "rs.",
  "Mich.",
  "Michigan",
  "mich.",
  "ch.",
  "Might",
  "might",
  "ght",
  "Minn.",
  "Minnesota",
  "minn.",
  "Miss.",
  "Mississippi",
  "miss.",
  "Mo.",
  "mo.",
  "Mont.",
  "mont.",
  "nt.",
  "Mr.",
  "mr.",
  "Mrs.",
  "mrs.",
  "Ms.",
  "ms.",
  "Mt.",
  "Mount",
  "mt.",
  "Must",
  "must",
  "ust",
  "N.C.",
  "North Carolina",
  "n.c.",
  "N",
  "N.D.",
  "North Dakota",
  "n.d.",
  ".D.",
  "N.H.",
  "New Hampshire",
  "n.h.",
  ".H.",
  "N.J.",
  "New Jersey",
  "n.j.",
  ".J.",
  "N.M.",
  "New Mexico",
  "n.m.",
  ".M.",
  "N.Y.",
  "New York",
  "n.y.",
  ".Y.",
  "Neb.",
  "Nebraska",
  "neb.",
  "Nebr.",
  "nebr.",
  "br.",
  "Need",
  "need",
  "eed",
  "Nev.",
  "Nevada",
  "nev.",
  "ev.",
  "Nothin",
  "nothin",
  "hin",
  "Nothin'",
  "nothin'",
  "Nothin\u2019",
  "nothin\u2019",
  "Nov.",
  "November",
  "nov.",
  "Nuthin",
  "nuthin",
  "Nuthin'",
  "nuthin'",
  "Nuthin\u2019",
  "nuthin\u2019",
  "O'clock",
  "o'clock",
  "O",
  "ock",
  "X'xxxx",
  "O.O",
  "o.o",
  "X.X",
  "O.o",
  "X.x",
  "O_O",
  "o_o",
  "X_X",
  "O_o",
  "X_x",
  "Oct.",
  "October",
  "oct.",
  "ct.",
  "Okla.",
  "Oklahoma",
  "okla.",
  "Ol",
  "old",
  "ol",
  "Ol'",
  "ol'",
  "Xx'",
  "Ol\u2019",
  "ol\u2019",
  "Xx\u2019",
  "Ore.",
  "Oregon",
  "ore.",
  "re.",
  "Ought",
  "ought",
  "O\u2019clock",
  "o\u2019clock",
  "X\u2019xxxx",
  "Pa.",
  "Pennsylvania",
  "pa.",
  "P",
  "Ph.D.",
  "ph.d.",
  "Xx.X.",
  "Prof.",
  "prof.",
  "of.",
  "Rep.",
  "rep.",
  "R",
  "ep.",
  "Rev.",
  "rev.",
  "S.C.",
  "South Carolina",
  "s.c.",
  "S",
  "Sen.",
  "sen.",
  "Sep.",
  "September",
  "sep.",
  "Sept.",
  "sept.",
  "pt.",
  "Sha",
  "shall",
  "sha",
  "Should",
  "should",
  "Somethin",
  "somethin",
  "Somethin'",
  "somethin'",
  "Somethin\u2019",
  "somethin\u2019",
  "St.",
  "st.",
  "Tenn.",
  "Tennessee",
  "tenn.",
  "T",
  "hat",
  "There",
  "there",
  "ere",
  "hey",
  "V.V",
  "v.v",
  "V",
  "V_V",
  "v_v",
  "Va.",
  "Virginia",
  "va.",
  "Wash.",
  "Washington",
  "wash.",
  "W",
  "sh.",
  "What",
  "what",
  "When",
  "when",
  "hen",
  "Where",
  "where",
  "Who",
  "who",
  "Why",
  "why",
  "Wis.",
  "Wisconsin",
  "wis.",
  "is.",
  "Wo",
  "wo",
  "Would",
  "XD",
  "xd",
  "XDD",
  "xdd",
  "XXX",
  "Y",
  "[-:",
  "[",
  "[:",
  "\\\")",
  "\\",
  "\\n",
  "\\x",
  "\\t",
  "^_^",
  "^",
  "^__^",
  "__^",
  "^___^",
  "a.",
  "x.",
  "and/or",
  "/or",
  "xxx/xx",
  "b.",
  "b",
  "c.",
  "c",
  "xxxx",
  "xx.",
  "d.",
  "xxxx'",
  "xxxx\u2019",
  "e.",
  "e",
  "em",
  "f.",
  "f",
  "g.",
  "g",
  "h.",
  "h",
  "i.",
  "j.",
  "j",
  "k.",
  "k",
  "l.",
  "m.",
  "xx'xx",
  "xx\u2019xx",
  "n.",
  "nuff",
  "o",
  "x'xxxx",
  "o.",
  "o.0",
  "x.d",
  "o.O",
  "x.X",
  "x.x",
  "o_0",
  "x_d",
  "o_O",
  "x_X",
  "x_x",
  "xx'",
  "xx\u2019",
  "x\u2019xxxx",
  "p.",
  "q.",
  "q",
  "r.",
  "s.",
  "t.",
  "u.",
  "u",
  "v.",
  "v.s.",
  ".s.",
  "vs.",
  "w.",
  "w",
  "w/o",
  "without",
  "x/x",
  "xD",
  "xX",
  "xDD",
  "xXX",
  "y'",
  "y",
  "x'",
  "all",
  "y.",
  "y\u2019",
  "x\u2019",
  "z.",
  "z",
  "\u00a0",
  "  ",
  "\u00af\\(\u30c4)/\u00af",
  "\u00af",
  ")/\u00af",
  "\u00af\\(x)/\u00af",
  "\u00e4.",
  "\u00e4",
  "\u00f6.",
  "\u00f6",
  "\u00fc.",
  "\u00fc",
  "\u0ca0_\u0ca0",
  "\u0ca0",
  "\u0ca0\ufe35\u0ca0",
  "x\ufe35x",
  "\u2014",
  "\u2018S",
  "\u2018s",
  "\u2018",
  "\u2018X",
  "\u2018x",
  "\u2019Cause",
  "\u2019cause",
  "\u2019Xxxxx",
  "\u2019Cos",
  "\u2019cos",
  "\u2019Xxx",
  "\u2019Coz",
  "\u2019coz",
  "\u2019Cuz",
  "\u2019cuz",
  "\u2019S",
  "\u2019X",
  "\u2019bout",
  "\u2019xxxx",
  "\u2019xxx",
  "\u2019em",
  "\u2019nuff",
  "\u2019\u2019",
  "ROOT",
  "B-LeaseEnteredDate",
  "I-LeaseEnteredDate",
  "B-LandLord",
  "I-LandLord",
  "B-Tenant",
  "I-Tenant",
  "B-RentableSquare",
  "B-LeaseDuration",
  "I-LeaseDuration",
  "B-CommencementDate",
  "B-ExpirationDate",
  "I-ExpirationDate",
  "I-CommencementDate",
  "B-FixedRentAmount",
  "I-FixedRentAmount",
  "B-SecurityDepositAmount",
  "I-SecurityDepositAmount",
  "B-ElectricExpenseAmount",
  "I-ElectricExpenseAmount",
  "Tag",
  "Tenant",
  "tenant",
  "ant",
  "pay",
  "Security",
  "security",
  "ity",
  "Deposit",
  "deposit",
  "sit",
  "2,447.84",
  ".84",
  "d,ddd.dd",
  "under",
  "der",
  "this",
  "Lease",
  "lease",
  "ase",
  "the",
  "`",
  "for",
  "prompt",
  "mpt",
  "and",
  "complete",
  "ete",
  "performance",
  "nce",
  "by",
  "every",
  "ery",
  "provision",
  "ion",
  "Ad",
  "ad",
  "valorem",
  "rem",
  "taxes",
  "xes",
  "payable",
  "ble",
  "on",
  "Project",
  "project",
  "ect",
  "\u00e2\u0080\u009c",
  "\u00e2",
  "x\u0080\u009c",
  "Taxes",
  "\u00e2\u0080\u009d",
  "x\u0080\u009d",
  "extent",
  "ent",
  "such",
  "uch",
  "projected",
  "ted",
  "exceed",
  "in",
  "calendar",
  "dar",
  "year",
  "ear",
  "2017",
  "017",
  "dddd",
  "Base",
  "base",
  "Year",
  "The",
  "Fixed",
  "fixed",
  "xed",
  "Rent",
  "rent",
  "annual",
  "ual",
  "escalations",
  "ons",
  "during",
  "ing",
  "Renewal",
  "renewal",
  "wal",
  "Term",
  "term",
  "erm",
  "provided",
  "ded",
  "Section",
  "section",
  "In",
  "consideration",
  "mutual",
  "covenants",
  "nts",
  "stated",
  "below",
  "low",
  "intending",
  "legally",
  "lly",
  "bound",
  "und",
  "parties",
  "ies",
  "covenant",
  "agree",
  "ree",
  "follows",
  "ows",
  "Landlord",
  "landlord",
  "ord",
  "|",
  "TERM",
  "ERM",
  "XXXX",
  "however",
  "ver",
  "more",
  "ore",
  "han",
  "one",
  "month",
  "nth",
  "\u00e2\u0080\u0099",
  "x\u0080\u0099",
  "advance",
  "at",
  "any",
  "time",
  "ime",
  "998",
  "ddd",
  "Suites",
  "suites",
  "tes",
  "1205",
  "205",
  "1206",
  "206",
  "amount",
  "unt",
  "due",
  "from",
  "rom",
  "paid",
  "aid",
  "within",
  "15",
  "days",
  "ays",
  "date",
  "ate",
  "also",
  "lso",
  "additional",
  "nal",
  "late",
  "fee",
  "200",
  "period",
  "iod",
  "sixty",
  "xty",
  "three",
  "63",
  "months",
  "ths",
  "Initial",
  "initial",
  "ial",
  "beginning",
  "Commencement",
  "commencement",
  "Date",
  "ending",
  "last",
  "ast",
  "day",
  "third",
  "ird",
  "after",
  "ter",
  "Expiration",
  "expiration",
  "ADDITIONAL",
  "NAL",
  "RENT",
  "ENT",
  "event",
  "transfer",
  "fer",
  "Building",
  "building",
  "right",
  "transferee",
  "pon",
  "released",
  "sed",
  "liability",
  "return",
  "urn",
  "cost",
  "ost",
  "expense",
  "nse",
  "subject",
  "Allowance",
  "allowance",
  "hereinafter",
  "defined",
  "ned",
  "construct",
  "uct",
  "Leasehold",
  "leasehold",
  "Improvements",
  "improvements",
  "accordance",
  "with",
  "ith",
  "set",
  "construction",
  "drawings",
  "ngs",
  "standards",
  "rds",
  "which",
  "ich",
  "een",
  "approved",
  "ved",
  "attached",
  "hed",
  "hereto",
  "eto",
  "Exhibit",
  "exhibit",
  "bit",
  "A-1",
  "a-1",
  "X-d",
  "collectively",
  "ely",
  "referred",
  "red",
  "Plans",
  "plans",
  "ans",
  "depicted",
  "Operating",
  "operating",
  "Expenses",
  "expenses",
  "ses",
  "reasonable",
  "costs",
  "sts",
  "related",
  "maintenance",
  "operation",
  "repair",
  "air",
  "incurred",
  "including",
  "limited",
  "management",
  "five",
  "ive",
  "percent",
  "%",
  "charged",
  "ged",
  "tenants",
  "common",
  "mon",
  "area",
  "rea",
  "utilities",
  "capital",
  "tal",
  "repairs",
  "irs",
  "replacements",
  "or",
  "equipment",
  "only",
  "nly",
  "those",
  "ose",
  "required",
  "laws",
  "aws",
  "enacted",
  "comply",
  "ply",
  "terms",
  "rms",
  "reimburse",
  "rse",
  "compliance",
  "installed",
  "led",
  "reduce",
  "uce",
  "each",
  "ach",
  "Capital",
  "Improvement",
  "improvement",
  "purchase",
  "make",
  "ake",
  "install",
  "then",
  "same",
  "ame",
  "amortized",
  "zed",
  "item",
  "tem",
  "purchased",
  "made",
  "ade",
  "continuing",
  "lesser",
  "ser",
  "useful",
  "ful",
  "life",
  "ife",
  "recover",
  "reduced",
  "ced",
  "reasonably",
  "bly",
  "determined",
  "rate",
  "equal",
  "greater",
  "borrowing",
  "U",
  "assumption",
  "agrees",
  "ees",
  "look",
  "ook",
  "solely",
  "new",
  "said",
  "Commencing",
  "commencing",
  "thereafter",
  "monthly",
  "hly",
  "basis",
  "sis",
  "deduction",
  "off",
  "an",
  "allocable",
  "share",
  "Share",
  "following",
  "WKS",
  "wks",
  "10774/5",
  "4/5",
  "dddd/d",
  "1182884v7",
  "4v7",
  "ddddxd",
  "12/",
  "dd/",
  "10-Mar",
  "10-mar",
  "Mar",
  "dd-Xxx",
  "3:34",
  ":34",
  "d:dd",
  "2013",
  "013",
  "All",
  "insurance",
  "premiums",
  "ums",
  "respect",
  "Insurance",
  "Premiums",
  "notice",
  "ice",
  "demand",
  "installments",
  "forth",
  "rth",
  "first",
  "rst",
  "check",
  "eck",
  "sent",
  "PDC",
  "pdc",
  "Old",
  "Eagle",
  "eagle",
  "gle",
  "LLC",
  "llc",
  "Post",
  "post",
  "Office",
  "office",
  "Box",
  "box",
  "419346",
  "346",
  "Boston",
  "boston",
  "ton",
  "MA",
  "ma",
  "02241",
  "241",
  "9346",
  "other",
  "address",
  "ess",
  "provide",
  "ide",
  "least",
  "ten",
  "60",
  "sixtieth",
  "eth",
  "Credit",
  "credit",
  "dit",
  "2014",
  "014",
  "YEAR",
  "EAR",
  "PER",
  "per",
  "SF",
  "sf",
  "INSTALLMENTS",
  "NTS",
  "Months",
  "26",
  "37",
  "33,242",
  "242",
  "dd,ddd",
  "Month",
  "38",
  "49",
  "22.5",
  "2.5",
  "dd.d",
  "33997.5",
  "7.5",
  "dddd.d",
  "50",
  "61",
  "23",
  "34,753",
  "753",
  "*",
  "500",
  "confirm",
  "irm",
  "1,152",
  "152",
  "d,ddd",
  "rentable",
  "square",
  "feet",
  "eet",
  "shown",
  "own",
  "space",
  "ace",
  "plan",
  "lan",
  "Premises",
  "premises",
  "located",
  "985",
  "School",
  "school",
  "ool",
  "Road",
  "road",
  "oad",
  "together",
  "surrounding",
  "land",
  "part",
  "art",
  "Evolve",
  "evolve",
  "lve",
  "IP",
  "ip",
  "Corporate",
  "corporate",
  "Center",
  "center",
  "Wayne",
  "wayne",
  "yne",
  "pennsylvania",
  "nia",
  "Property",
  "property",
  "rty",
  "No",
  "no",
  "interest",
  "est",
  "Following",
  "Event",
  "Default",
  "default",
  "ult",
  "apply",
  "retain",
  "ain",
  "whole",
  "ole",
  "necessary",
  "ary",
  "payment",
  "sums",
  "money",
  "ney",
  "ii",
  "sum",
  "expended",
  "provisions",
  "account",
  "16,061.83",
  ".83",
  "dd,ddd.dd",
  "77",
  "88",
  "16,426.88",
  ".88",
  "1,256.13",
  ".13",
  "15,073.50",
  ".50",
  "full",
  "ull",
  "installment",
  "1,223.92",
  ".92",
  "two",
  "separate",
  "checks",
  "cks",
  "execution",
  "condition",
  "endeavor",
  "vor",
  "fifteen",
  "prior",
  "ior",
  "Substantial",
  "substantial",
  "Completion",
  "completion",
  "january",
  "2018",
  "018",
  "remaining",
  "balance",
  "thereof",
  "eof",
  "completely",
  "relieved",
  "This",
  "obligations",
  "hereunder",
  "expressly",
  "sly",
  "contingent",
  "obtaining",
  "certificates",
  "permits",
  "licenses",
  "zoning",
  "approvals",
  "als",
  "federal",
  "ral",
  "state",
  "local",
  "cal",
  "authority",
  "PDC-",
  "pdc-",
  "DC-",
  "XXX-",
  "toTenant",
  "totenant",
  "xxXxxxx",
  "Early",
  "early",
  "rly",
  "Termination",
  "termination",
  "Fee",
  "Four",
  "four",
  "free",
  "calculated",
  "14,236.63",
  ".63",
  "total",
  "56,946.52",
  ".52",
  "unamortized",
  "leasing",
  "commissions",
  "28,267.42",
  ".42",
  "85,213.94",
  ".94",
  "64",
  "fourth",
  "payments",
  "amounts",
  "result",
  "acceleration",
  "2,824.50",
  "FIXED",
  "XED",
  "SECURITY",
  "ITY",
  "DEPOSIT",
  "SIT",
  "12/13/10",
  "/10",
  "dd/dd/dd",
  "5:34",
  "Late",
  "5169650",
  "650",
  "v3",
  "LEASE",
  "ASE",
  "fe",
  "\u00e2\u0080\u0094",
  "x\u0080\u0094",
  "Deceml",
  "deceml",
  "eml",
  "Attached",
  "A-2",
  "a-2",
  "copies",
  "contracts",
  "cts",
  "contractors",
  "ors",
  "Construction",
  "Contracts",
  "Comtracts",
  "comtracts",
  "1.25",
  ".25",
  "d.dd",
  "percentage",
  "age",
  "footage",
  "bears",
  "ars",
  "4,701/376,303",
  "303",
  "d,ddd/ddd,ddd",
  "PREMISES",
  "SES",
  "/",
  "LEASEHOLD",
  "OLD",
  "IMPROVEMENTS",
  "means",
  "completed",
  "occupied",
  "ied",
  "Permitted",
  "permitted",
  "Uses",
  "uses",
  "minor",
  "nor",
  "finishing",
  "adjustment",
  "aspects",
  "Punch",
  "punch",
  "nch",
  "List",
  "list",
  "ist",
  "procured",
  "temporary",
  "permanent",
  "certificate",
  "occupancy",
  "ncy",
  "permitting",
  "law",
  ".No",
  ".no",
  ".Xx",
  ".of",
  ".xx",
  "desires",
  "res",
  "exercise",
  "ise",
  "Option",
  "option",
  "One",
  "notify",
  "ify",
  "later",
  "july",
  "uly",
  "31",
  "given",
  "ven",
  "11,257.26",
  ".26",
  "delivered",
  "ept",
  "agreed",
  "constructed",
  "sole",
  "conditions",
  "previous",
  "ous",
  "sentence",
  "include",
  "ude",
  "information",
  "Bldg",
  "bldg",
  "ldg",
  "anticipated",
  "2015",
  "015",
  "To",
  "request",
  "Balance",
  "Escrow",
  "escrow",
  "row",
  "Agent",
  "respectively",
  "Piccione",
  "piccione",
  "simultaneously",
  "submit",
  "mit",
  "written",
  "accompanied",
  "breakdown",
  "portions",
  "Change",
  "change",
  "nge",
  "Orders",
  "orders",
  "ers",
  "seeking",
  "invoices",
  "ces",
  "evidence",
  "iii",
  "sworn",
  "orn",
  "statement",
  "work",
  "ork",
  "reimbursement",
  "incorporated",
  "into",
  "nto",
  "iv",
  "lien",
  "ien",
  "releases",
  "_",
  "subcontractors",
  "material",
  "suppliers",
  "performing",
  "services",
  "furnishing",
  "materials",
  "AOUGLLIVG",
  "aougllivg",
  "IVG",
  "Within",
  "thirty",
  "30",
  "earlier",
  "ier",
  "returned",
  "Suite",
  "suite",
  "ite",
  "514",
  "JMPROVEMENTS",
  "jmprovements",
  "996",
  "1105",
  "105",
  "sre",
  "leases",
  "august",
  "1182884v16",
  "v16",
  "ddddxdd",
  "EARLY",
  "RLY",
  "TERMINATION",
  "ION",
  "OPTIONS",
  "options",
  "ONS",
  "2,166.93",
  ".93",
  "992",
  "909",
  "Such",
  "999",
  "110",
  "Additional",
  "Electricity",
  "electricity",
  "However",
  "Reduced",
  "Periods",
  "periods",
  "ods",
  "nevertheless",
  "limitation",
  "Sections",
  "sections",
  "Abatement",
  "abatement",
  "Provided",
  "charge",
  "rge",
  "overdue",
  "ill",
  "automatically",
  "waived",
  "Prior",
  "end",
  "commences",
  "Go",
  "107745",
  "745",
  "E82884vt8",
  "e82884vt8",
  "vt8",
  "Xddddxxd",
  "occur",
  "cur",
  "commence",
  "consent",
  "assumes",
  "mes",
  "possession",
  "before",
  "advising",
  "above",
  "ove",
  "prevent",
  "exercising",
  "remedy",
  "edy",
  "operate",
  "either",
  "liquidated",
  "damages",
  "ges",
  "recovery",
  "otherwise",
  "entitled",
  "\u00e2\u0080\u0098",
  "x\u0080\u0098",
  "directly",
  "tly",
  "activities",
  "conducted",
  "C.",
  "X.",
  "705",
  "1,614",
  "614",
  "987",
  "Effective",
  "effective",
  "between",
  "KLS",
  "kls",
  "Enterprises",
  "enterprises",
  "GPX",
  "gpx",
  "Properties",
  "properties",
  "L.P",
  "l.p",
  "dated",
  "september",
  "ber",
  "25",
  "2007",
  "007",
  "amended",
  "First",
  "Amendment",
  "amendment",
  "2008",
  "008",
  "Second",
  "second",
  "ond",
  "october",
  "2009",
  "009",
  "Third",
  "24",
  "2010",
  "010",
  "Fourth",
  "2011",
  "011",
  "Fifth",
  "fifth",
  "fth",
  "2012",
  "012",
  "Existing",
  "existing",
  "whereby",
  "eby",
  "leased",
  "certain",
  "Leased",
  "Space",
  "consisting",
  "twenty",
  "nty",
  "Rate",
  "Increase",
  "increase",
  "actual",
  "confirmed",
  "med",
  "executing",
  "Addendum",
  "addendum",
  "dum",
  "appropriately",
  "retains",
  "ins",
  "1182884v16Security",
  "1182884v16security",
  "ddddxddXxxxx",
  "fund",
  "1,485.00",
  ".00",
  "Notwithstanding",
  "notwithstanding",
  "contrary",
  "contained",
  "liable",
  "manner",
  "ner",
  "claim",
  "aim",
  "resulting",
  "failure",
  "ure",
  "deliver",
  "delay",
  "lay",
  "completing",
  "perform",
  "orm",
  "authorized",
  "caused",
  "negligence",
  "deliberate",
  "act",
  "hereby",
  "waives",
  "ves",
  "claims",
  "ims",
  "Free",
  "993",
  "19087",
  "087",
  "satisfy",
  "sfy",
  "obtain",
  "Permits",
  "Approvals",
  "evidencing",
  "coverages",
  "sub",
  "pursuant",
  "iit",
  "review",
  "iew",
  "approval",
  "val",
  "unreasonably",
  "withheld",
  "eld",
  "intends",
  "nds",
  "Calcom",
  "calcom",
  "com",
  "Technologies",
  "technologies",
  "Benco",
  "benco",
  "nco",
  "Dental",
  "dental",
  "deemed",
  "schedule",
  "ule",
  "LEGALt21086\u0002nevertheless",
  "legalt21086\u0002nevertheless",
  "XXXXxdddd\u0002xxxx",
  "APPROVAL",
  "VAL",
  "CONTINGENCY",
  "contingency",
  "NCY",
  "1182884v16110",
  "ddddxdddd",
  "terminated",
  "through",
  "ugh",
  "Period",
  "&",
  "315",
  "BHP",
  "bhp",
  "314",
  "ISC",
  "isc",
  "6,131",
  "131",
  "995",
  "unreserved",
  "parking",
  "spaces",
  "13,588.00",
  "plus",
  "lus",
  "Electric",
  "electric",
  "ric",
  "Expense",
  "1,104.03",
  ".03",
  "twelfth",
  "estimated",
  "excess",
  "5,112.00",
  "\u00b0",
  "1\u00c2",
  "1\u00e2",
  "assess",
  "ofthe",
  "57355",
  "355",
  "Philadelphia",
  "philadelphia",
  "hia",
  "19111",
  "111",
  "1,131",
  "EVOLVE",
  "LVE",
  "Substantially",
  "substantially",
  "Completed",
  "obtained",
  "CO",
  "co",
  "abated",
  "beyond",
  "fails",
  "ils",
  "pocket",
  "ket",
  "10774/112",
  "112",
  "dddd/ddd",
  "4002335v4",
  "5v4",
  "THIS",
  "HIS",
  "entered",
  "Nevember",
  "nevember",
  "2016",
  "016",
  "EAGLE",
  "GLE",
  "Limited",
  "Liability",
  "Corporation",
  "corporation",
  "INNOVATIVE",
  "innovative",
  "IVE",
  "SURGICAL",
  "surgical",
  "CAL",
  "DESIGNS",
  "designs",
  "GNS",
  "company",
  "principal",
  "pal",
  "place",
  "business",
  "PA",
  "pa",
  "305",
  "2,495",
  "495",
  "307",
  "1,857",
  "857",
  "portion",
  "used",
  "applied",
  "retained",
  "therefor",
  "cash",
  "ash",
  "sufficient",
  "restore",
  "original",
  "]",
  "BAST",
  "bast",
  "AST",
  "described",
  "bed",
  "\u00c2",
  "alterations",
  "depreciation",
  "mortgages",
  "debt",
  "ebt",
  "franchise",
  "income",
  "ome",
  "gains",
  "estate",
  "inheritance",
  "unincorporated",
  "succession",
  "gift",
  "ift",
  "stock",
  "similar",
  "lar",
  "imposed",
  "finder",
  "fees",
  "marketing",
  "promotional",
  "advertising",
  "procuring",
  "constructing",
  "installations",
  "contribution",
  "relocation",
  "salaries",
  "benefits",
  "compensation",
  "personnel",
  "nel",
  "grade",
  "manager",
  "ger",
  "EAST",
  "east",
  "v3Landlord",
  "v3landlord",
  "xdXxxxx",
  "ee",
  "2,262.00",
  "2any",
  "dxxx",
  "good",
  "ood",
  "class",
  "ass",
  "workmanlike",
  "ike",
  "applicable",
  "timely",
  "irrevocably",
  "Two",
  "14,601.67",
  ".67",
  "29",
  "40",
  "20.5",
  "0.5",
  "14,966.71",
  ".71",
  "41",
  "52",
  "Annual",
  "foot",
  "oot",
  "march",
  "rch",
  "occurs",
  "urs",
  "indicated",
  "herein",
  "ein",
  "taking",
  "purpose",
  "\u00e2\u0082\u00ac",
  "x\u0082\u00ac",
  "5,780.76",
  ".76",
  "902",
  "six",
  "36",
  "sixth",
  "xth",
  "best",
  "efforts",
  "rts",
  "diligent",
  "continuous",
  "ys",
  "4zgto",
  "gto",
  "dxxxx",
  "2,167.75",
  ".75",
  "183.79",
  ".79",
  "ddd.dd",
  "P.O",
  "p.o",
  "become",
  "null",
  "void",
  "oid",
  "further",
  "Seventy",
  "seventy",
  "Thousand",
  "thousand",
  "Three",
  "Hundred",
  "hundred",
  "Fifty",
  "fifty",
  "fty",
  "Dollars",
  "dollars",
  "71,350.00",
  "faith",
  "estimate",
  "Contribution",
  "aifTenant",
  "aiftenant",
  "xxxXxxxx",
  "250",
  "points",
  "prime",
  "published",
  "Sonvee",
  "sonvee",
  "vee",
  "20/8",
  "0/8",
  "dd/d",
  "WAYNE",
  "YNE",
  "OFFICE",
  "ICE",
  "PROPERTIES",
  "IES",
  "L.P.",
  "l.p.",
  ".P.",
  "delaware",
  "partnership",
  "hip",
  "ELITE",
  "elite",
  "ITE",
  "MGA",
  "mga",
  "191",
  "Sheree",
  "sheree",
  "Blvd",
  "blvd",
  "lvd",
  "increases",
  "separately",
  "purposes",
  "treated",
  "considered",
  "1182884v16completely",
  "ddddxddxxxx",
  "ANNUAL",
  "UAL",
  "MONTHLY",
  "HLY",
  "14-Jan",
  "14-jan",
  "Jan",
  "1,634.88",
  "22,888.32",
  ".32",
  "successive",
  "send",
  "indicate",
  "respective",
  "SE",
  "se",
  "12-Jan",
  "12-jan",
  "18.5",
  "8.5",
  "1,876.21",
  ".21",
  "22,514.50",
  "13",
  "19",
  "1,926.92",
  "23,123.00",
  "19.5",
  "9.5",
  "1,977.63",
  "23,731.50",
  "Total",
  "95.58",
  ".58",
  "dd.dd",
  "96",
  "rimary",
  "15-Apr",
  "15-apr",
  "Apr",
  "20",
  "20.15",
  ".15",
  "3,095.50",
  "37,146.91",
  ".91",
  "27-Jun",
  "27-jun",
  "Jun",
  "20.65",
  ".65",
  "38.075.5",
  "5.5",
  "dd.ddd.d",
  "Aug-39",
  "aug-39",
  "-39",
  "Xxx-dd",
  "21",
  "0.15",
  "21.15",
  "3,250.30",
  ".30",
  "39,004.20",
  ".20",
  "51",
  "3,327.74",
  ".74",
  "39,932.90",
  ".90",
  "Feb-63",
  "feb-63",
  "-63",
  "22",
  "3,405.13",
  "40,861.50",
  "addition",
  "consider",
  "discretion",
  "waiving",
  "subsequent",
  "Promptly",
  "promptly",
  "governmental",
  "utility",
  "order",
  ".Landlord",
  ".landlord",
  ".Xxxxx",
  "cooperate",
  "cooperation",
  "acquire",
  "ire",
  "instal",
  "!",
  "heading",
  "Money",
  "Rates",
  "rates",
  "Wall",
  "wall",
  "Street",
  "street",
  "Journal",
  "journal",
  "manufacture",
  "installation",
  "Use",
  "november",
  "904",
  "contains",
  "8,761",
  "761",
  "park",
  "ark",
  "Fibro",
  "fibro",
  "bro",
  "Source",
  "source",
  "rce",
  "USA",
  "usa",
  "W.",
  "Bruce",
  "bruce",
  "Buck",
  "buck",
  "uck",
  "Woods",
  "woods",
  "27",
  "2005",
  "005",
  "december",
  "february",
  "810",
  "989",
  "182884v164",
  "164",
  "ddddxddd",
  "Cente",
  "cente",
  "nte",
  "61S",
  "61s",
  "ddX",
  "WAY",
  "way",
  "Spay",
  "spay",
  "}",
  "4002335v4Tenant",
  "4002335v4tenant",
  "ddddxdXxxxx",
  "responsible",
  "charges",
  "L.",
  "inspected",
  "familiar",
  "iar",
  "accepts",
  "pts",
  "current",
  "AS",
  "IS",
  "warranty",
  "representation",
  "habitability",
  "merchantability",
  "fitness",
  "particular",
  "soon",
  "oon",
  "practicable",
  "follow",
  "copy",
  "opy",
  "required.hereunder",
  "xxxx.xxxx",
  "Tenants",
  "4,626.10",
  ".10",
  "credited",
  "For",
  "determining",
  "clearing",
  "snow",
  "now",
  "areas",
  "eas",
  "sidewalks",
  "lks",
  "average",
  "over",
  "most",
  "recent",
  "years",
  "61st",
  "1st",
  "ddxx",
  "16-May",
  "16-may",
  "5,250.00",
  "487.5",
  "ddd.d",
  "prepaid",
  "LEGALt21086\u0002",
  "legalt21086\u0002",
  "86\u0002",
  "XXXXxdddd\u0002",
  "180",
  "intention",
  "renew",
  "Thirty",
  "Six",
  "2019",
  "019",
  "remains",
  "unpaid",
  "receipt",
  "ipt",
  "14,687.00",
  "\u00c2\u00a2",
  "\u00e2\u00a2",
  "X\u00a2",
  "513",
  "ieases",
  "No.1110",
  "no.1110",
  "Xx.dddd",
  "1,511",
  "511",
  "36th",
  "6th",
  "mo",
  "10774",
  "774",
  "182884v",
  "84v",
  "ddddx",
  "153",
  "Leaschold",
  "leaschold",
  "Cost",
  "Ninety",
  "ninety",
  "ety",
  "196,100.00",
  "ddd,ddd.dd",
  "contract",
  "Eighty",
  "eighty",
  "hty",
  "Five",
  "185,000.00",
  "Contract",
  "Sum",
  "Management",
  "Eleven",
  "eleven",
  "11,100.00",
  "affiliate",
  "fully",
  "Budget",
  "budget",
  "here",
  "A-3",
  "a-3",
  "2days",
  "ttem",
  "?",
  "NAME",
  "name",
  "AME",
  "/sKiay",
  "/skiay",
  "iay",
  "/xXxxx",
  "FIBRO",
  "BRO",
  "SOURCE",
  "RCE",
  "Rd",
  "rd",
  "983",
  "616",
  "2,458.50",
  "4,917.00",
  "2due",
  "administratively",
  "available",
  "showing",
  "twelve",
  "makes",
  "kes",
  "eir",
  "dates",
  "occurred",
  "3,408.00",
  "refund",
  "supervising",
  "LL",
  "Company",
  "Cornerstone",
  "cornerstone",
  "Therapy",
  "therapy",
  "apy",
  "Wellness",
  "wellness",
  "639",
  "Swedesford",
  "swedesford",
  "Malvern",
  "malvern",
  "ern",
  "19355",
  "7355",
  "1182884v18",
  "v18",
  "broom",
  "oom",
  "clean",
  "ean",
  "finished",
  "10,500.00",
  "4002335v4complete",
  "ddddxdxxxx",
  "CAREPINE",
  "carepine",
  "INE",
  "HOME",
  "home",
  "OME",
  "HEALTH",
  "health",
  "LTH",
  "i.t",
  "ISS",
  "iss",
  "CLO",
  "clo",
  "\u00c2\u00a2ASLE",
  "\u00e2\u00a2asle",
  "SLE",
  "X\u00a2XXXX",
  "Scitton",
  "scitton",
  "tt",
  "fv",
  "purchasing",
  "installing",
  "rooftop",
  "top",
  "HVAC",
  "hvac",
  "VAC",
  "units",
  "duct",
  "diffusers",
  "dampers",
  "needed",
  "distribute",
  "ute",
  "service",
  "throughout",
  "access",
  "furniture",
  "telecommunication",
  "systems",
  "ems",
  "computer",
  "up",
  "mail",
  "ail",
  "supply",
  "operations",
  "2,393",
  "393",
  "PDC-~",
  "pdc-~",
  "C-~",
  "XXX-~",
  "fourteen",
  "14",
  "28",
  "Renewals",
  "renewals",
  "Ao",
  "ao",
  "AVM",
  "avm",
  "OO",
  "oo",
  "Oe",
  "oe",
  "44,936.63",
  "17",
  "receive",
  "Eight",
  "eight",
  "cighty",
  "eighth",
  "hth",
  "sooner",
  "herewith",
  "Footprints",
  "footprints",
  "Eastern",
  "eastern",
  "Recovery",
  "608",
  "+",
  "Sk",
  "sk",
  "Bae",
  "bae",
  "wi",
  "ogre",
  "gre",
  "take",
  "action",
  "adversely",
  "affect",
  "status",
  "tus",
  "proposed",
  "defaulted",
  "monetary",
  "preceding",
  "hereof",
  "terminate",
  "2022",
  "022",
  "oO",
  "454.040",
  "040",
  "ddd.ddd",
  "2,040.00",
  "4080",
  "080",
  "00",
  "april",
  "ril",
  "10,729.25",
  "128,751.00",
  "21.25",
  "10,856.98",
  ".98",
  "130,283.75",
  "21.5",
  "1.5",
  "10,984.71",
  "Certificate",
  "Occupancy",
  "proof",
  "oof",
  "enter",
  "KRAVITZ",
  "kravitz",
  "ITZ",
  "INC",
  "inc",
  "receives",
  "tax",
  "rebate",
  "accommodation",
  "previously",
  "reflected",
  "reconciliation",
  "granted",
  "INTENTIONALLY",
  "intentionally",
  "LLY",
  "DELETED",
  "deleted",
  "TED",
  "JP",
  "jp",
  "Word",
  "word",
  "18th",
  "8th",
  "AR",
  "ar",
  "Hughes",
  "hughes",
  "hes",
  "509",
  "1,217",
  "217",
  "985Old",
  "985old",
  "dddXxx",
  "th",
  "BROOKDALE",
  "brookdale",
  "ALE",
  "HOSPICE",
  "hospice",
  "OF",
  "PHILADELPHIA",
  "HIA",
  "SENIOR",
  "senior",
  "IOR",
  "CARE",
  "care",
  "ARE",
  "jointly",
  "severally",
  "vacant",
  "Ifany",
  "ifany",
  "ANAT",
  "anat",
  "NAT",
  "1,330",
  "330",
  "Landiord",
  "landiord",
  "\u00a9",
  "/\u00c3",
  "/\u00e3",
  "/X",
  "BIONIX",
  "bionix",
  "NIX",
  "DEVELOPMENT",
  "development",
  "CORPORATION",
  "\u00c2\u00a5re",
  "\u00e2\u00a5re",
  "\u00a5re",
  "X\u00a5xx",
  "S154",
  "s154",
  "154",
  "Xddd",
  "Enteprse",
  "enteprse",
  "Blud",
  "blud",
  "lud",
  "Jofede",
  "jofede",
  "ede",
  "OMe",
  "XXx",
  "I.",
  "Hart/995/20150817",
  "hart/995/20150817",
  "817",
  "Xxxx/ddd/dddd",
  "approves",
  "hereafier",
  "Order",
  "minimize",
  "ize",
  "noise",
  "vibration",
  "adverse",
  "consequences",
  "AUST",
  "aust",
  "UST",
  "VG.requirements",
  "vg.requirements",
  "XX.xxxx",
  "impose",
  "minimizing",
  "disruption",
  "businesses",
  "Twenty",
  "Seven",
  "seven",
  "124,750.00",
  "1,423.66",
  ".66",
  "28,473.26",
  "anticipates",
  "advise",
  "expected",
  "618",
  "2,623.87",
  ".87",
  "245.53",
  ".53",
  "5,247.74",
  "957",
  "63rd",
  "3rd",
  "17.75",
  "1,704.00",
  "20,448.00",
  "18.25",
  "1,752.00",
  "21,024.00",
  "18.75",
  "1,800.00",
  "21,600.00",
  "48",
  "19.25",
  "1,848.00",
  "22,176.00",
  "19.75",
  "1,896.00",
  "22,752.00",
  "20.25",
  "1,944.00",
  "7,776.00",
  "sum'expended",
  "xxx'xxxx",
  "Anticipated",
  "Delivery",
  "delivery",
  "hold",
  "segregated",
  "funding",
  "Agreement",
  "agreement",
  "A-4",
  "a-4",
  "among",
  "ong",
  "disburse",
  "progress",
  "toward",
  "ard",
  "PERSF",
  "persf",
  "RSF",
  "3,689.01",
  ".01",
  "44,270.50",
  "45,467.00",
  "3,788.92",
  "3,888.63",
  "46,663.50",
  "1,687.25",
  "annually",
  "using",
  "IRS",
  "guidelines",
  "nes",
  "savings",
  "1110",
  "1,191",
  "9830ld",
  "0ld",
  "ddddxx",
  "No.1118",
  "no.1118",
  "118",
  "1,639",
  "Impr",
  "impr",
  "mpr",
  "Some",
  "some",
  "fave",
  "lle",
  "Permitt\u00c3",
  "permitt\u00e3",
  "tt\u00c3",
  "XxxxxX",
  "1installments",
  "Schedule",
  "1,995.00",
  "thirteenth",
  "2,050.42",
  "997.5",
  "fourteenth",
  "1,025.21",
  "less",
  "5,395.83",
  "changes",
  "3,095.00",
  "15,331.75",
  "53",
  "continue",
  "nue",
  "held",
  "aad",
  "/e",
  "/x",
  "THE",
  "DEVEREUX",
  "devereux",
  "EUX",
  "FOUNDATION",
  "foundation",
  "nonprofit",
  "fit",
  "444",
  "Devereux",
  "eux",
  "Drive",
  "drive",
  "Villanova",
  "villanova",
  "ova",
  "19085",
  "085",
  "Qususl",
  "qususl",
  "Q",
  "usl",
  "DRS",
  "drs",
  "STEVEN",
  "steven",
  "VEN",
  "HART",
  "hart",
  "ART",
  "AND",
  "ROBERT",
  "robert",
  "ERT",
  "ROSE",
  "rose",
  "OSE",
  "P.C",
  "p.c",
  "DEVON",
  "devon",
  "VON",
  "DENTAL",
  "TAL",
  "professional",
  "execute",
  "Piecione",
  "piecione",
  "cure",
  "sublet",
  "assigned",
  "rights",
  "hts",
  "ILandlord",
  "ilandlord",
  "XXxxxx",
  "ats",
  "esonber",
  "AEGIS",
  "aegis",
  "GIS",
  "GENERAL",
  "general",
  "RAL",
  "INSURANCE",
  "NCE",
  "AGENCY",
  "agency",
  "ING",
  "2407",
  "407",
  "Park",
  "Harrisburg",
  "harrisburg",
  "urg",
  "17110",
  "hol",
  "ENTERPRISES",
  "Schoo",
  "schoo",
  "hoo",
  "remove",
  "representative",
  "contractor",
  "tor",
  "attend",
  "weekly",
  "kly",
  "meetings",
  "times",
  "thirty-",
  "ty-",
  "xxxx-",
  "Notice",
  "along",
  "Contingency",
  "writing",
  "certified",
  "requested",
  "2which",
  "185.74",
  "ig",
  "AV",
  "av",
  "INTERNATIONAL",
  "international",
  "RLJ",
  "rlj",
  "GROUP",
  "group",
  "OUP",
  "twenty-",
  "124",
  "124th",
  "4th",
  "dddxx",
  "4a",
  "dx",
  "permit",
  "preparing",
  "3-Jan",
  "3-jan",
  "d-Xxx",
  "12-Apr",
  "12-apr",
  "24.5",
  "4.5",
  "13,871.08",
  ".08",
  "14,154.17",
  ".17",
  "25.5",
  "14,437.25",
  "14,720.33",
  ".33",
  "26.5",
  "6.5",
  "15,003.42",
  "Shall",
  "23rd",
  "Breast",
  "breast",
  "Feeding",
  "feeding",
  "Resource",
  "resource",
  "1355",
  "York",
  "york",
  "Abington",
  "abington",
  "19001",
  "001",
  "0.3165",
  "165",
  "d.dddd",
  "equivalent",
  "fraction",
  "numerator",
  "denominator",
  "24th",
  "1118",
  "vs",
  "2,663.38",
  ".38",
  "31,960.50",
  "2,731.67",
  "32,780.00",
  "2,799.96",
  ".96",
  "33,599.50",
  "properly",
  "exercises",
  "vacate",
  "expire",
  "nature",
  "intended",
  "survive",
  "pmconditions",
  "With",
  "exception",
  "obligation",
  "buildings",
  "extend",
  "benefit",
  "concerning",
  "warranties",
  "application",
  "allow",
  "finally",
  "rejected",
  "license",
  "issued",
  "ued",
  "cancelled",
  "expires",
  "lapses",
  "withdrawn",
  "awn",
  "unable",
  "Exhibits",
  "exhibits",
  "thefirst",
  "Ie",
  "ie",
  "Deconber",
  "deconber",
  "CUROTEC",
  "curotec",
  "TEC",
  "scheduled",
  "inspections",
  "authorities",
  "16th",
  "Beacon",
  "beacon",
  "con",
  "Commercial",
  "commercial",
  "Real",
  "real",
  "eal",
  "Estate",
  "290",
  "King",
  "king",
  "Prussia",
  "prussia",
  "sia",
  "Radnor",
  "radnor",
  "providing",
  "until",
  "37th",
  "7th",
  "2,161.25",
  "25,935.00",
  "2Lease",
  "2lease",
  "dXxxxx",
  "Punchlist",
  "punchlist",
  "Items",
  "items",
  "shal",
  "hal",
  "selections",
  "regarding",
  "paint",
  "int",
  "carpet",
  "pet",
  "colors",
  "respond",
  "requests",
  "compiction",
  "intent",
  "contemporaneously",
  "immediately",
  "funds",
  "3s",
  "1102",
  "102",
  "773",
  "LEGAL\\",
  "legal\\",
  "AL\\",
  "XXXX\\",
  "6421086\u0002the",
  "dddd\u0002xxx",
  "foregoing",
  "extended",
  "force",
  "majeure",
  "Nos",
  "nos",
  "1182884v18remedy",
  "20,247.00",
  "\u00c2\u00a32/13/2010",
  "\u00e2\u00a32/13/2010",
  "X\u00a3d/dd/dddd",
  "pmMonths",
  "pmmonths",
  "17.5",
  "1,736.88",
  "20,842.50",
  "18",
  "1,786.50",
  "21,438.00",
  "1,851.55",
  ".55",
  "1,109.90",
  "131,816.50",
  "21.75",
  "11,112.44",
  ".44",
  "133,349.25",
  "11,240.17",
  "134,882.00",
  "72",
  "22.25",
  "11,367.90",
  "136,414.75",
  "long",
  "provides",
  "des",
  "consecutive",
  "KING",
  "PRUSSIA",
  "SIA",
  "FAMILY",
  "family",
  "ILY",
  "WELLNESS",
  "ESS",
  "DA",
  "da",
  "ti",
  "b\\",
  "x\\",
  "Ka",
  "ka",
  "Never",
  "never",
  "1,143",
  "143",
  "consists",
  "Sixty",
  "60,250.00",
  "shelving",
  "closet",
  "enters",
  "personal",
  "assessments",
  "public",
  "lic",
  "levied",
  "assessed",
  "against",
  "nst",
  "hereafter",
  "effect",
  "1182834018payments",
  "ddddxxxx",
  "No.1105",
  "no.1105",
  "3,000",
  "000",
  "Exton",
  "exton",
  "19341",
  "341",
  "EAST\\I19737392,24",
  "east\\i19737392,24",
  ",24",
  "XXXX\\Xdddd,dd",
  ".MA",
  ".ma",
  ".XX",
  "0.004",
  "004",
  "d.ddd",
  "0.3",
  "excise",
  "profits",
  "estates",
  "Cc",
  "15,696.79",
  "65",
  "76",
  "june",
  "une",
  "Connecting",
  "connecting",
  "Pieces",
  "pieces",
  "480",
  "North",
  "north",
  "Gulph",
  "gulph",
  "lph",
  "Annex",
  "annex",
  "nex",
  "6,794",
  "794",
  "After",
  "wishes",
  "inspectthe",
  "representatives",
  "joint",
  "inspection",
  "create",
  "whatsoever",
  "partial",
  "prorated",
  "diem",
  "iem",
  "Allpayments",
  "allpayments",
  "commercially",
  "timeframe",
  "2this",
  "pro",
  "rata",
  "ata",
  "Months1",
  "months1",
  "hs1",
  "Xxxxxd",
  "2,309.13",
  "2,356.25",
  "4,701",
  "701",
  "shail",
  "secure",
  "William",
  "william",
  "iam",
  "K.",
  "Stewart",
  "stewart",
  "Esq",
  "esq",
  "pin",
  "cancellation",
  "16",
  "26,600.00",
  "give"
]